,estimate,pvalue,rbp,fdr,event_type
0,16.415444569787496,0.5615,SBDS.Upstream_intron.r.250,1.0,exon_cassette
1,-211.21264485695357,1.0,KHSRP.Upstream_intron.r.250,1.0,exon_cassette
2,-55.765254845654574,1.0,AGGF1.Upstream_intron.r.250,1.0,exon_cassette
3,2.84227258742726,1.0,CIRBP.Downstream_intron.l.250,1.0,exon_cassette
4,64.09604143165276,0.8981,LIN28B.Upstream_intron.r.250,1.0,exon_cassette
5,141.5085632242594,0.0302,RBM15.Upstream_intron.r.250,1.0,exon_cassette
6,33.354476463953574,0.7662,GNL3.Upstream_intron.r.250,1.0,exon_cassette
7,60.933801661367816,0.1546,FMR1.Downstream_intron.l.250,1.0,exon_cassette
8,-121.30822479746102,1.0,TIA1.Upstream_intron.r.250,1.0,exon_cassette
9,21.562711516767806,0.5181,NPM1.Downstream_intron.l.250,1.0,exon_cassette
10,51.38785765562656,1.0,DDX24.Downstream_intron.l.250,1.0,exon_cassette
11,31.607219772333355,0.5381,GRSF1.Downstream_intron.l.250,1.0,exon_cassette
12,-40.67711003999747,1.0,SRSF1.Downstream_intron.l.250,1.0,exon_cassette
13,145.7797661778493,0.1168,SF3B4.Downstream_intron.l.250,1.0,exon_cassette
14,-31.603015075374742,1.0,IGF2BP1.Downstream_intron.l.250,1.0,exon_cassette
15,46.04307250538127,1.0,GEMIN5.Downstream_intron.l.250,1.0,exon_cassette
16,12.80648138652591,1.0,SLBP.Upstream_intron.r.250,1.0,exon_cassette
17,43.29340580453001,0.106,UPF1.Upstream_intron.r.250,1.0,exon_cassette
18,32.67613578094795,1.0,FXR2.Downstream_intron.l.250,1.0,exon_cassette
19,-9.913649882063094,1.0,SLBP.Downstream_intron.l.250,1.0,exon_cassette
20,68.10962978154305,1.0,DROSHA.Downstream_intron.l.250,1.0,exon_cassette
21,-101.05681468566434,1.0,GPKOW.Downstream_intron.l.250,1.0,exon_cassette
22,117.78058660652353,0.2729,CSTF2T.Upstream_intron.r.250,1.0,exon_cassette
23,69.79150856322,0.0016,SUPV3L1.Downstream_intron.l.250,0.4576,exon_cassette
24,56.26612655112576,0.0894,YWHAG.Upstream_intron.r.250,1.0,exon_cassette
25,-50.58711926981761,1.0,RBFOX3.Downstream_intron.l.250,1.0,exon_cassette
26,-24.176238334531394,1.0,ELAVL3.Downstream_intron.l.250,1.0,exon_cassette
27,85.31140395856623,0.94,LIN28B.Downstream_intron.l.250,1.0,exon_cassette
28,63.17177725361769,1.0,EIF3D.Upstream_intron.r.250,1.0,exon_cassette
29,49.93898061736259,1.0,HNRNPM.Downstream_intron.l.250,1.0,exon_cassette
30,18.52271561891517,1.0,GNL3.Downstream_intron.l.250,1.0,exon_cassette
31,16.595836324478395,0.5733,EZH2.Upstream_intron.r.250,1.0,exon_cassette
32,113.80278945748762,1.0,TROVE2.Upstream_intron.r.250,1.0,exon_cassette
33,0.0,0.0,NOVA.Upstream_intron.r.250,0.0,exon_cassette
34,0.0,0.0,SRRM4.Upstream_intron.r.250,0.0,exon_cassette
35,21.27043380166297,0.9946,LARP7.Downstream_intron.l.250,1.0,exon_cassette
36,-17.082350528149707,1.0,NSUN2.Upstream_intron.r.250,1.0,exon_cassette
37,65.96010665572376,1.0,IGF2BP1.Upstream_intron.r.250,1.0,exon_cassette
38,69.55061019382728,0.2378,UCHL5.Upstream_intron.r.250,1.0,exon_cassette
39,0.0,0.0,CELF1.Downstream_intron.l.250,0.0,exon_cassette
40,40.157829966156356,0.7876,DDX24.Upstream_intron.r.250,1.0,exon_cassette
41,-25.382217208492854,1.0,NSUN2.Downstream_intron.l.250,1.0,exon_cassette
42,-23.759665675313684,0.7388,TDP-43.Upstream_intron.r.250,1.0,exon_cassette
43,133.87990975287013,1.0,PTBP1.Upstream_intron.r.250,1.0,exon_cassette
44,48.92077735618574,1.0,GEMIN5.Upstream_intron.r.250,1.0,exon_cassette
45,34.535022049014806,0.644,FXR1.Upstream_intron.r.250,1.0,exon_cassette
46,5.7238744744141234,1.0,SERBP1.Upstream_intron.r.250,1.0,exon_cassette
47,-69.44739001127874,1.0,ILF3.Upstream_intron.r.250,1.0,exon_cassette
48,85.16075274328747,0.0062,DDX55.Downstream_intron.l.250,1.0,exon_cassette
49,66.79622602812364,1.0,SF3A3.Upstream_intron.r.250,1.0,exon_cassette
50,0.9641062455132806,0.9759,EIF2C1.Downstream_intron.l.250,1.0,exon_cassette
51,55.20367141831599,1.0,TRA2A.Downstream_intron.l.250,1.0,exon_cassette
52,-76.40165111271193,1.0,SFPQ.Upstream_intron.r.250,1.0,exon_cassette
53,50.73869346733556,1.0,RBM22.Downstream_intron.l.250,1.0,exon_cassette
54,-40.936519331350944,1.0,ELAVL4.Upstream_intron.r.250,1.0,exon_cassette
55,51.96631114757252,0.2687,AARS.Upstream_intron.r.250,1.0,exon_cassette
56,-148.2446928519891,0.5382,UCHL5.Downstream_intron.l.250,1.0,exon_cassette
57,-13.396267049533614,0.4701,EZH2.Downstream_intron.l.250,1.0,exon_cassette
58,-65.91262434621706,1.0,TROVE2.Downstream_intron.l.250,1.0,exon_cassette
59,70.41882883806933,0.1754,LIN28A.Upstream_intron.r.250,1.0,exon_cassette
60,74.9770279971275,0.2178,CPSF6.Upstream_intron.r.250,1.0,exon_cassette
61,-31.554917444366353,1.0,AUH.Downstream_intron.l.250,1.0,exon_cassette
62,27.405804532869027,0.9755,HLTF.Upstream_intron.r.250,1.0,exon_cassette
63,85.04912316683733,1.0,RPS5.Downstream_intron.l.250,1.0,exon_cassette
64,15.91026561378456,0.1805,SBDS.Downstream_intron.l.250,1.0,exon_cassette
65,69.68557071070181,0.0704,SND1.Upstream_intron.r.250,1.0,exon_cassette
66,-46.4896420879937,1.0,FUS.Downstream_intron.l.250,1.0,exon_cassette
67,104.71151676749989,1.0,CSTF2T.Downstream_intron.l.250,1.0,exon_cassette
68,-164.08552968924346,1.0,TIA1.Downstream_intron.l.250,1.0,exon_cassette
69,24.062814070348537,0.1915,LARP7.Upstream_intron.r.250,1.0,exon_cassette
70,65.10778381704907,0.9556,XRCC6.Downstream_intron.l.250,1.0,exon_cassette
71,46.89519023690192,1.0,DKC1.Upstream_intron.r.250,1.0,exon_cassette
72,68.74946159367627,1.0,HNRNPK.Downstream_intron.l.250,1.0,exon_cassette
73,31.780022561786318,0.0785,RPS11.Downstream_intron.l.250,1.0,exon_cassette
74,117.57891498306508,1.0,HNRNPK.Upstream_intron.r.250,1.0,exon_cassette
75,60.3083273510468,1.0,SF3B1.Upstream_intron.r.250,1.0,exon_cassette
76,3.3825761460363553,0.9738,CIRBP.Upstream_intron.r.250,1.0,exon_cassette
77,-56.40477899702517,1.0,DGCR8.Upstream_intron.r.250,1.0,exon_cassette
78,51.30099476977528,0.0317,SRSF9.Downstream_intron.l.250,1.0,exon_cassette
79,54.49717977642798,0.5446,CPSF6.Downstream_intron.l.250,1.0,exon_cassette
80,-83.70741462414252,1.0,GPKOW.Upstream_intron.r.250,1.0,exon_cassette
81,41.25197415650378,1.0,EWSR1.Upstream_intron.r.250,1.0,exon_cassette
82,19.5055891703376,0.3069,LIN28.Upstream_intron.r.250,1.0,exon_cassette
83,-37.06948005332618,1.0,PTBP2.Downstream_intron.l.250,1.0,exon_cassette
84,-84.51348579633094,0.5839,HLTF.Downstream_intron.l.250,1.0,exon_cassette
85,44.55625064095688,0.3176,FXR1.Downstream_intron.l.250,1.0,exon_cassette
86,-143.63331965951306,1.0,QKI.Upstream_intron.r.250,1.0,exon_cassette
87,-109.55143062246268,1.0,PPIG.Downstream_intron.l.250,1.0,exon_cassette
88,0.0,0.0,PAN-ELAVL.Upstream_intron.r.250,0.0,exon_cassette
89,22.708235052816107,0.5674,TARDBP.Downstream_intron.l.250,1.0,exon_cassette
90,115.33735001541419,0.6214,RBFOX2.Upstream_intron.r.250,1.0,exon_cassette
91,64.96185006666924,0.9321,AKAP8L.Upstream_intron.r.250,1.0,exon_cassette
92,86.70690185622851,0.6012,XRCC6.Upstream_intron.r.250,1.0,exon_cassette
93,50.91672648958788,0.9948,PUS1.Upstream_intron.r.250,1.0,exon_cassette
94,92.0176392164945,1.0,BUD13.Upstream_intron.r.250,1.0,exon_cassette
95,-170.29238026865514,0.3714,BUD13.Downstream_intron.l.250,1.0,exon_cassette
96,-103.0800943492978,1.0,HNRNPA1.Downstream_intron.l.250,1.0,exon_cassette
97,42.65829145728689,0.1443,IGF2BP2.Upstream_intron.r.250,1.0,exon_cassette
98,-116.8458106860874,1.0,QKI.Downstream_intron.l.250,1.0,exon_cassette
99,82.27679212389152,1.0,DROSHA.Upstream_intron.r.250,1.0,exon_cassette
100,89.69377499743271,0.1584,BCCIP.Upstream_intron.r.250,1.0,exon_cassette
101,0.8913957542816142,0.836,EIF2C2.Upstream_intron.r.250,1.0,exon_cassette
102,-136.08460670701874,0.8662,ZNF622.Downstream_intron.l.250,1.0,exon_cassette
103,50.353502204894426,1.0,DGCR8.Downstream_intron.l.250,1.0,exon_cassette
104,62.875448671920445,0.0093,EIF4G2.Upstream_intron.r.250,1.0,exon_cassette
105,-4.463747307968179,1.0,JARID2.Downstream_intron.l.250,1.0,exon_cassette
106,55.098400164088616,0.305,GRSF1.Upstream_intron.r.250,1.0,exon_cassette
107,-109.51051174238921,1.0,HNRNPU.Downstream_intron.l.250,1.0,exon_cassette
108,0.0,0.0,RBFOX.Upstream_intron.r.250,0.0,exon_cassette
109,-50.58711926981761,1.0,RBFOX1.Downstream_intron.l.250,1.0,exon_cassette
110,73.62926879294093,1.0,HNRNPM.Upstream_intron.r.250,1.0,exon_cassette
111,-9.030560968105883,0.7531,NOVA1.Downstream_intron.l.250,1.0,exon_cassette
112,106.5606604450716,0.2104,SUPV3L1.Upstream_intron.r.250,1.0,exon_cassette
113,61.586452671505974,1.0,SAFB2.Downstream_intron.l.250,1.0,exon_cassette
114,-67.69136498821824,0.9836,EFTUD2.Downstream_intron.l.250,1.0,exon_cassette
115,63.41626499846227,0.8877,NONO.Upstream_intron.r.250,1.0,exon_cassette
116,54.80796841350083,1.0,XPO5.Upstream_intron.r.250,1.0,exon_cassette
117,-40.936519331350944,1.0,ELAVL2.Upstream_intron.r.250,1.0,exon_cassette
118,0.0,0.0,SRSF4.Upstream_intron.r.250,0.0,exon_cassette
119,25.671315762481647,0.6223,UPF1.Downstream_intron.l.250,1.0,exon_cassette
120,76.18095579939384,1.0,RPS5.Upstream_intron.r.250,1.0,exon_cassette
121,-0.8328889344685517,0.3332,PAN-ELAVL.Downstream_intron.l.250,1.0,exon_cassette
122,72.85888626808125,0.0748,NOL12.Upstream_intron.r.250,1.0,exon_cassette
123,-104.45795303045423,1.0,RBFOX2.Downstream_intron.l.250,1.0,exon_cassette
124,40.39760024612147,1.0,FTO.Downstream_intron.l.250,1.0,exon_cassette
125,63.708440159974856,0.0741,METAP2.Upstream_intron.r.250,1.0,exon_cassette
126,101.55753256075401,0.5262,TBRG4.Upstream_intron.r.250,1.0,exon_cassette
127,67.50825556350833,0.1391,TRA2A.Upstream_intron.r.250,1.0,exon_cassette
128,-30.03425289714,0.9659,DDX3X.Upstream_intron.r.250,1.0,exon_cassette
129,88.91206030152286,0.0867,FAM120A.Upstream_intron.r.250,1.0,exon_cassette
130,110.3800123064492,1.0,U2AF2.Downstream_intron.l.250,1.0,exon_cassette
131,-133.2436673161812,0.5299,PRPF8.Downstream_intron.l.250,1.0,exon_cassette
132,69.4571838785776,0.1546,NCBP2.Downstream_intron.l.250,1.0,exon_cassette
133,55.512614090862016,1.0,TARDBP.Upstream_intron.r.250,1.0,exon_cassette
134,105.331299353893,0.0262,SRSF1.Upstream_intron.r.250,1.0,exon_cassette
135,12.290893241720633,1.0,SRSF2.Upstream_intron.r.250,1.0,exon_cassette
136,-40.936519331350944,1.0,ELAVL1.Upstream_intron.r.250,1.0,exon_cassette
137,61.1128089426773,1.0,SF3B4.Upstream_intron.r.250,1.0,exon_cassette
138,0.0,0.0,RBFOX.Downstream_intron.l.250,0.0,exon_cassette
139,72.5187673059016,1.0,CDC40.Upstream_intron.r.250,1.0,exon_cassette
140,-130.3043277612516,1.0,HNRNPUL1.Downstream_intron.l.250,1.0,exon_cassette
141,-24.176238334531394,1.0,ELAVL1.Downstream_intron.l.250,1.0,exon_cassette
142,-94.55122551532435,1.0,U2AF2.Upstream_intron.r.250,1.0,exon_cassette
143,53.89580555840194,0.4126,LSM11.Downstream_intron.l.250,1.0,exon_cassette
144,-33.5648651420345,1.0,PUS1.Downstream_intron.l.250,1.0,exon_cassette
145,118.90857347963721,1.0,TAF15.Downstream_intron.l.250,1.0,exon_cassette
146,48.81478822683832,1.0,DDX6.Upstream_intron.r.250,1.0,exon_cassette
147,69.4112398728335,0.0056,SRSF9.Upstream_intron.r.250,1.0,exon_cassette
148,82.99907701772796,0.0599,IGF2BP3.Upstream_intron.r.250,1.0,exon_cassette
149,0.8913957542816142,0.836,EIF2C1.Upstream_intron.r.250,1.0,exon_cassette
150,-48.06963388369685,1.0,SRSF7.Downstream_intron.l.250,1.0,exon_cassette
151,-12.714183160701324,1.0,NOVA1.Upstream_intron.r.250,1.0,exon_cassette
152,-24.216593169931485,1.0,DKC1.Downstream_intron.l.250,1.0,exon_cassette
153,135.83509383655408,1.0,TAF15.Upstream_intron.r.250,1.0,exon_cassette
154,-3.4361091170138804,1.0,JARID2.Upstream_intron.r.250,1.0,exon_cassette
155,59.535227156180575,0.0937,SUB1.Upstream_intron.r.250,1.0,exon_cassette
156,-3.933340170237849,0.4593,MBNL2.Upstream_intron.r.250,1.0,exon_cassette
157,-91.5945031278795,1.0,SUGP2.Downstream_intron.l.250,1.0,exon_cassette
158,137.76284483642908,0.0552,RBM22.Upstream_intron.r.250,1.0,exon_cassette
159,-25.625628140704254,0.1751,SRSF2.Downstream_intron.l.250,1.0,exon_cassette
160,69.46538816530203,0.7635,LARP4.Upstream_intron.r.250,1.0,exon_cassette
161,-27.527945851708274,0.5324,TDP-43.Downstream_intron.l.250,1.0,exon_cassette
162,0.0,0.0,SRRM4.Downstream_intron.l.250,0.0,exon_cassette
163,-75.0697364372846,1.0,YBX3.Downstream_intron.l.250,1.0,exon_cassette
164,-81.24448774484281,1.0,PTBP2.Upstream_intron.r.250,1.0,exon_cassette
165,28.416316275254264,0.691,FASTKD2.Downstream_intron.l.250,1.0,exon_cassette
166,79.72915598398401,0.0316,IGF2BP3.Downstream_intron.l.250,1.0,exon_cassette
167,112.7251051174026,1.0,PTBP1.Downstream_intron.l.250,1.0,exon_cassette
168,86.64013947287202,0.5943,PPIG.Upstream_intron.r.250,1.0,exon_cassette
169,-40.2295661983397,1.0,YBX3.Upstream_intron.r.250,1.0,exon_cassette
170,-121.99292380269546,1.0,HNRNPUL1.Upstream_intron.r.250,1.0,exon_cassette
171,116.43231463439842,0.5482,LIN28A.Downstream_intron.l.250,1.0,exon_cassette
172,-67.79935391241689,1.0,DHX30.Downstream_intron.l.250,1.0,exon_cassette
173,52.06589067788317,1.0,TBRG4.Downstream_intron.l.250,1.0,exon_cassette
174,-24.176238334531394,1.0,ELAVL4.Downstream_intron.l.250,1.0,exon_cassette
175,-62.692749461604244,1.0,GRWD1.Upstream_intron.r.250,1.0,exon_cassette
176,-35.04102143370222,1.0,FTO.Upstream_intron.r.250,1.0,exon_cassette
177,33.56368577581736,1.0,DDX6.Downstream_intron.l.250,1.0,exon_cassette
178,235.0578402215508,0.0047,PRPF8.Upstream_intron.r.250,1.0,exon_cassette
179,-39.83919597989983,1.0,SND1.Downstream_intron.l.250,1.0,exon_cassette
180,-24.176238334531394,1.0,ELAVL2.Downstream_intron.l.250,1.0,exon_cassette
181,-80.07430007178866,1.0,KHDRBS1.Upstream_intron.r.250,1.0,exon_cassette
182,40.949543636548285,1.0,PPIL4.Downstream_intron.l.250,1.0,exon_cassette
183,25.397907906877478,1.0,FKBP4.Downstream_intron.l.250,1.0,exon_cassette
184,-38.299456466003015,1.0,MBNL1.Downstream_intron.l.250,1.0,exon_cassette
185,204.35888626806118,0.0901,EFTUD2.Upstream_intron.r.250,1.0,exon_cassette
186,78.04702081835715,0.1239,FXR2.Upstream_intron.r.250,1.0,exon_cassette
187,103.18592964823726,1.0,U2AF1.Downstream_intron.l.250,1.0,exon_cassette
188,38.87134652856115,0.5575,RBM27.Upstream_intron.r.250,1.0,exon_cassette
189,-64.79340580454111,1.0,SMNDC1.Upstream_intron.r.250,1.0,exon_cassette
190,16.477899702595288,0.3595,LIN28.Downstream_intron.l.250,1.0,exon_cassette
191,70.16572659214746,1.0,PCBP2.Upstream_intron.r.250,1.0,exon_cassette
192,0.0,0.0,SRSF3.Upstream_intron.r.250,0.0,exon_cassette
193,85.14552353604431,0.1057,DDX42.Upstream_intron.r.250,1.0,exon_cassette
194,175.15106142961855,0.002,XRN2.Upstream_intron.r.250,0.5720000000000001,exon_cassette
195,60.65424059071523,1.0,XPO5.Downstream_intron.l.250,1.0,exon_cassette
196,137.50066659828605,0.2744,GTF2F1.Upstream_intron.r.250,1.0,exon_cassette
197,22.243154548246554,0.7046,RPS11.Upstream_intron.r.250,1.0,exon_cassette
198,48.28786791098375,0.9897,PCBP2.Downstream_intron.l.250,1.0,exon_cassette
199,67.45333811916527,0.6217,NCBP2.Upstream_intron.r.250,1.0,exon_cassette
200,-53.38939595938941,0.1882,DDX3X.Downstream_intron.l.250,1.0,exon_cassette
201,59.73792431546252,1.0,NONO.Downstream_intron.l.250,1.0,exon_cassette
202,2.8422725874272596,1.0,RBM3.Downstream_intron.l.250,1.0,exon_cassette
203,-60.70264588247102,0.2503,EIF3D.Downstream_intron.l.250,1.0,exon_cassette
204,-47.824838478105555,1.0,RBFOX3.Upstream_intron.r.250,1.0,exon_cassette
205,-93.5869141626436,1.0,HNRNPA1.Upstream_intron.r.250,1.0,exon_cassette
206,60.74371859296456,0.1003,METAP2.Downstream_intron.l.250,1.0,exon_cassette
207,0.9641062455132806,0.9759,EIF2C2.Downstream_intron.l.250,1.0,exon_cassette
208,43.864475438419575,0.0949,EIF4G2.Downstream_intron.l.250,1.0,exon_cassette
209,54.89580555839593,0.0048,SUB1.Downstream_intron.l.250,1.0,exon_cassette
210,74.99030868627908,0.0864,BCCIP.Downstream_intron.l.250,1.0,exon_cassette
211,31.572095169722882,1.0,TNRC6A.Downstream_intron.l.250,1.0,exon_cassette
212,32.49066762383545,0.3709,NPM1.Upstream_intron.r.250,1.0,exon_cassette
213,99.22684852834992,0.2805,RBM15.Downstream_intron.l.250,1.0,exon_cassette
214,42.567634088809385,1.0,DDX59.Downstream_intron.l.250,1.0,exon_cassette
215,-74.91944415957313,1.0,CDC40.Downstream_intron.l.250,1.0,exon_cassette
216,102.50282022355506,0.1103,SLTM.Downstream_intron.l.250,1.0,exon_cassette
217,119.19428776534296,0.8332,XRN2.Downstream_intron.l.250,1.0,exon_cassette
218,59.30012306429255,1.0,FAM120A.Downstream_intron.l.250,1.0,exon_cassette
219,0.0,0.0,SRSF4.Downstream_intron.l.250,0.0,exon_cassette
220,96.8272997641552,1.0,LSM11.Upstream_intron.r.250,1.0,exon_cassette
221,-40.936519331350944,1.0,ELAVL3.Upstream_intron.r.250,1.0,exon_cassette
222,-106.29740539432865,1.0,KHDRBS1.Downstream_intron.l.250,1.0,exon_cassette
223,55.95754281613014,1.0,EWSR1.Downstream_intron.l.250,1.0,exon_cassette
224,72.93995487642435,0.0341,AUH.Upstream_intron.r.250,1.0,exon_cassette
225,-110.17649471848274,1.0,HNRNPU.Upstream_intron.r.250,1.0,exon_cassette
226,43.906676238333795,1.0,AKAP8L.Downstream_intron.l.250,1.0,exon_cassette
227,-47.824838478105555,1.0,RBFOX1.Upstream_intron.r.250,1.0,exon_cassette
228,75.25643523740924,0.6775,PPIL4.Upstream_intron.r.250,1.0,exon_cassette
229,-12.714183160701324,1.0,NOVA2.Upstream_intron.r.250,1.0,exon_cassette
230,53.04917444364209,1.0,PUM2.Upstream_intron.r.250,1.0,exon_cassette
231,32.60270741463273,1.0,RBM27.Downstream_intron.l.250,1.0,exon_cassette
232,0.0,0.0,NOVA.Downstream_intron.l.250,0.0,exon_cassette
233,99.14721567020067,0.2273,GTF2F1.Downstream_intron.l.250,1.0,exon_cassette
234,0.0,0.0,CELF1.Upstream_intron.r.250,0.0,exon_cassette
235,59.7519228797061,0.4375,IGF2BP2.Downstream_intron.l.250,1.0,exon_cassette
236,20.4765152292044,0.9615,NOL12.Downstream_intron.l.250,1.0,exon_cassette
237,100.09188801149955,0.0949,SLTM.Upstream_intron.r.250,1.0,exon_cassette
238,115.37380781459117,0.7751,U2AF1.Upstream_intron.r.250,1.0,exon_cassette
239,-64.96200389704407,1.0,LARP4.Downstream_intron.l.250,1.0,exon_cassette
240,28.06307045431477,0.4079,YWHAG.Downstream_intron.l.250,1.0,exon_cassette
241,-6.460978361194213,1.0,SERBP1.Downstream_intron.l.250,1.0,exon_cassette
242,71.05558404265804,1.0,FASTKD2.Upstream_intron.r.250,1.0,exon_cassette
243,-42.37565377909828,1.0,CSTF2.Downstream_intron.l.250,1.0,exon_cassette
244,-38.602809968207424,0.7747,MTPAP.Downstream_intron.l.250,1.0,exon_cassette
245,-43.485488667828605,1.0,FUS.Upstream_intron.r.250,1.0,exon_cassette
246,-77.4312890985547,1.0,SUGP2.Upstream_intron.r.250,1.0,exon_cassette
247,-74.32765870167528,1.0,SFPQ.Downstream_intron.l.250,1.0,exon_cassette
248,63.67798174547511,0.8724,DDX59.Upstream_intron.r.250,1.0,exon_cassette
249,-9.030560968105883,0.7531,NOVA2.Downstream_intron.l.250,1.0,exon_cassette
250,0.0,0.0,SRSF3.Downstream_intron.l.250,0.0,exon_cassette
251,65.02010050252716,0.1939,SRSF7.Upstream_intron.r.250,1.0,exon_cassette
252,-106.49769254435749,0.5024,AGGF1.Downstream_intron.l.250,1.0,exon_cassette
253,40.660855296892414,1.0,TNRC6A.Upstream_intron.r.250,1.0,exon_cassette
254,86.70003076608997,1.0,ZRANB2.Upstream_intron.r.250,1.0,exon_cassette
255,40.65213824223118,0.6256,PUM2.Downstream_intron.l.250,1.0,exon_cassette
256,-40.03353502204697,1.0,FUBP3.Downstream_intron.l.250,1.0,exon_cassette
257,-143.83786278330209,1.0,HNRNPC.Downstream_intron.l.250,1.0,exon_cassette
258,50.11578299661705,1.0,CSTF2.Upstream_intron.r.250,1.0,exon_cassette
259,0.0,0.0,CELF4.Downstream_intron.l.250,0.0,exon_cassette
260,18.698748846267954,0.9481,AGO2.Upstream_intron.r.250,1.0,exon_cassette
261,-35.09506717259523,1.0,FUBP3.Upstream_intron.r.250,1.0,exon_cassette
262,78.18931391650769,1.0,ILF3.Downstream_intron.l.250,1.0,exon_cassette
263,49.0143575017948,1.0,SF3B1.Downstream_intron.l.250,1.0,exon_cassette
264,-147.68874987180376,1.0,HNRNPC.Upstream_intron.r.250,1.0,exon_cassette
265,58.39949748743072,0.0168,FKBP4.Upstream_intron.r.250,1.0,exon_cassette
266,0.0,0.0,CELF4.Upstream_intron.r.250,0.0,exon_cassette
267,77.20572248999993,0.3182,ZRANB2.Downstream_intron.l.250,1.0,exon_cassette
268,53.80289201107303,1.0,DDX42.Downstream_intron.l.250,1.0,exon_cassette
269,106.02092093117882,0.0168,SMNDC1.Downstream_intron.l.250,1.0,exon_cassette
270,-214.25781971078064,0.4824,KHSRP.Downstream_intron.l.250,1.0,exon_cassette
271,-35.10439954876459,1.0,MBNL1.Upstream_intron.r.250,1.0,exon_cassette
272,26.598502717670602,1.0,AARS.Downstream_intron.l.250,1.0,exon_cassette
273,104.78740641988762,0.2079,DDX55.Upstream_intron.r.250,1.0,exon_cassette
274,-55.598195056924204,1.0,ZNF622.Upstream_intron.r.250,1.0,exon_cassette
275,-7.869449287251779,1.0,MBNL2.Downstream_intron.l.250,1.0,exon_cassette
276,80.36283458106779,1.0,GRWD1.Downstream_intron.l.250,1.0,exon_cassette
277,68.34888729360992,0.7709,MTPAP.Upstream_intron.r.250,1.0,exon_cassette
278,68.11491129115412,1.0,SAFB2.Upstream_intron.r.250,1.0,exon_cassette
279,-68.36432160805066,1.0,NKRF.Downstream_intron.l.250,1.0,exon_cassette
280,2.0518408368371808,0.4101,RBM3.Upstream_intron.r.250,1.0,exon_cassette
281,67.91098348889194,0.0324,FMR1.Upstream_intron.r.250,1.0,exon_cassette
282,76.65244590300117,1.0,DHX30.Upstream_intron.r.250,1.0,exon_cassette
283,112.32637678187122,1.0,NKRF.Upstream_intron.r.250,1.0,exon_cassette
284,123.01574197517434,0.0131,SF3A3.Downstream_intron.l.250,1.0,exon_cassette
285,50.38011486000602,0.5142,AGO2.Downstream_intron.l.250,1.0,exon_cassette
